{
    "environment": "orbital",
    "delivery_capacity": 15,
    "bricks_queue": 
        { 
            "5394": {
                "id": "5394",
                "location_goal": {
                    "x": 5.0,
                    "y": 12.2,
                    "z": 13
                },
                "connected_bricks": {
                    "0": {
                        "brick_id": "5395",
                        "connected_brick_location": "4",
                        "angle": 0
                    }
                },
                "connections": {
                    "0": {
                        "Electric": [
                            "4"
                        ]
                    }
                }
            },
            "5395":{
            "id": "5395",
            "location_goal": {
                "x": 5.0,
                "y": 12.2,
                "z": 14
            },
            "connected_bricks": {
                "4": {
                    "brick_id": "5394",
                    "connected_brick_location": "0",
                    "angle": 0
                }
            },
            "connections": {
                "4": {
                    "Electric": [
                        "0"
                    ]
                }
            }
        }
    }
}